<?xml version="1.0" standalone="no"?>
<!DOCTYPE svg PUBLIC "-//W3C//DTD SVG 20010904//EN"
 "http://www.w3.org/TR/2001/REC-SVG-20010904/DTD/svg10.dtd">
<svg version="1.0" xmlns="http://www.w3.org/2000/svg"
 width="3072.000000pt" height="3072.000000pt" viewBox="0 0 3072.000000 3072.000000"
 preserveAspectRatio="xMidYMid meet">
<metadata>
Created by potrace 1.11, written by Peter Selinger 2001-2013
</metadata>
<g transform="translate(0.000000,3072.000000) scale(0.100000,-0.100000)"
fill="#000000" stroke="none">
<path d="M16636 19202 c-3 -2 -30 -6 -60 -7 -68 -4 -194 -16 -221 -21 -11 -2
-38 -6 -60 -9 -69 -7 -226 -36 -340 -62 -60 -14 -117 -26 -125 -28 -8 -1 -22
-5 -30 -8 -8 -3 -35 -11 -60 -18 -109 -27 -347 -111 -490 -172 -14 -6 -27 -11
-30 -11 -17 -4 -310 -153 -338 -173 -19 -12 -38 -20 -43 -17 -5 3 -9 1 -9 -3
0 -5 -47 -37 -105 -72 -58 -35 -105 -67 -105 -71 0 -4 -11 -12 -26 -18 -48
-22 -277 -203 -408 -322 -93 -84 -326 -325 -326 -336 0 -2 -8 -12 -17 -22 -92
-95 -318 -409 -409 -566 -77 -135 -87 -152 -141 -255 -64 -120 -185 -391 -175
-391 4 0 2 -4 -4 -8 -15 -10 -123 -315 -165 -467 -6 -22 -14 -47 -17 -55 -3
-8 -6 -22 -8 -31 -2 -8 -11 -42 -19 -75 -9 -32 -18 -70 -21 -84 -3 -14 -11
-53 -19 -86 -15 -67 -22 -100 -31 -154 -3 -19 -12 -66 -19 -105 -8 -38 -11
-73 -9 -77 3 -4 1 -8 -3 -8 -5 0 -8 -12 -8 -26 1 -15 -2 -49 -6 -78 -5 -28
-11 -82 -15 -121 -3 -38 -8 -81 -10 -95 -21 -133 -21 -651 1 -880 9 -99 28
-243 39 -295 2 -11 9 -54 16 -95 7 -41 16 -86 21 -100 4 -14 10 -38 13 -55 2
-16 14 -66 26 -110 12 -44 23 -84 25 -90 1 -5 5 -17 8 -25 3 -8 22 -64 43
-125 20 -60 41 -113 46 -116 6 -3 9 -9 9 -13 -1 -3 -1 -7 0 -8 0 -2 2 -10 4
-18 4 -19 106 -230 143 -295 16 -27 35 -61 43 -75 8 -14 16 -27 20 -30 3 -3
16 -23 29 -45 28 -47 118 -172 140 -195 8 -9 33 -38 55 -66 61 -75 263 -272
340 -332 117 -90 296 -212 312 -212 3 0 14 -6 22 -14 45 -39 322 -169 501
-234 148 -54 413 -126 540 -146 19 -3 46 -8 60 -11 14 -3 39 -8 55 -10 17 -2
46 -6 65 -9 69 -11 187 -24 295 -33 107 -10 764 -10 840 -1 33 4 76 9 96 12
42 4 120 15 164 21 25 4 187 36 248 50 10 2 52 14 95 25 42 12 84 23 92 25 8
2 47 14 85 26 39 12 76 24 82 25 31 6 192 91 233 123 47 36 107 95 150 146 38
45 70 95 62 95 -4 0 -2 4 3 8 28 19 86 179 109 302 3 14 7 34 10 45 5 22 35
157 42 190 4 23 14 63 19 85 2 8 4 15 5 15 1 0 3 11 5 25 2 14 6 36 10 50 7
27 13 54 19 85 2 11 9 38 14 60 6 22 13 54 16 70 3 17 8 41 11 55 3 14 8 36
11 50 3 14 7 33 10 42 3 10 7 30 10 45 3 16 14 65 24 111 11 46 22 96 25 110
3 15 7 40 10 56 6 27 5 28 -12 15 -10 -8 -20 -16 -23 -19 -3 -3 -21 -17 -40
-30 -19 -13 -37 -27 -40 -30 -3 -3 -25 -19 -50 -35 -25 -17 -46 -33 -48 -37
-2 -5 -8 -8 -14 -8 -5 0 -33 -15 -61 -33 -86 -54 -91 -57 -117 -68 -13 -5 -31
-15 -38 -22 -8 -6 -21 -12 -30 -13 -8 -2 -19 -9 -23 -16 -5 -7 -9 -10 -9 -5 0
4 -21 -4 -47 -17 -44 -23 -144 -65 -168 -71 -5 -1 -23 -8 -40 -14 -16 -7 -34
-14 -40 -15 -5 -2 -17 -6 -25 -9 -26 -10 -116 -37 -138 -42 -46 -10 -58 -13
-97 -24 -22 -5 -56 -12 -75 -15 -19 -2 -42 -7 -50 -10 -14 -5 -69 -13 -135
-21 -124 -14 -169 -17 -313 -19 -275 -3 -507 28 -712 97 -36 11 -67 22 -70 22
-3 1 -18 7 -33 13 -101 42 -136 58 -168 78 -20 13 -40 20 -43 17 -3 -4 -6 -1
-6 5 0 7 -5 12 -11 12 -12 0 -116 69 -184 123 -70 55 -265 257 -265 273 0 8
-4 14 -8 14 -4 0 -16 13 -25 30 -10 16 -23 35 -30 43 -31 34 -130 232 -171
343 -33 87 -81 252 -90 309 -31 181 -33 197 -41 330 -4 50 -8 117 -11 150 -7
77 -6 208 1 265 3 25 7 68 9 95 4 49 14 130 22 170 2 11 8 45 14 75 13 71 18
99 25 130 3 14 7 34 10 45 25 118 109 380 170 530 53 130 114 266 125 275 3 3
16 29 29 58 14 29 31 58 38 63 7 6 10 15 7 20 -3 5 0 9 5 9 6 0 11 5 11 11 0
20 201 317 254 376 6 6 27 30 46 54 69 84 217 228 315 308 124 102 105 87 205
152 147 93 200 123 200 111 0 -4 4 -2 8 5 5 9 106 59 127 63 3 1 29 12 60 25
30 14 56 25 58 24 1 0 16 5 32 11 17 6 90 27 162 46 122 31 177 42 243 49 14
1 25 3 25 4 0 3 67 9 147 15 37 2 71 7 77 10 5 4 12 2 16 -4 4 -6 10 -8 15 -5
13 8 80 13 80 6 0 -3 14 -6 30 -6 17 0 30 4 30 8 0 5 5 5 10 2 10 -6 160 -17
267 -19 24 -1 43 -4 43 -7 0 -3 6 -6 13 -6 20 0 130 -13 157 -18 55 -11 86
-16 110 -20 14 -2 36 -6 50 -9 14 -3 59 -13 100 -22 41 -9 81 -21 88 -27 6 -5
12 -7 12 -4 0 3 15 1 33 -4 17 -6 37 -11 42 -13 14 -3 87 -26 105 -33 8 -3 22
-7 30 -9 9 -2 34 -11 55 -20 22 -10 46 -19 53 -20 25 -5 267 -126 274 -138 4
-6 8 -8 8 -4 0 14 220 -137 220 -152 0 -4 8 -10 19 -13 17 -4 24 15 66 162 26
91 49 175 50 186 2 11 10 37 18 58 9 20 14 37 12 37 -3 0 0 11 5 25 5 14 12
36 14 48 3 12 14 55 25 95 10 39 17 72 14 72 -3 0 1 7 8 17 8 9 13 18 11 20
-3 3 13 84 25 133 18 69 2 251 -27 302 -6 10 -10 22 -10 27 0 16 -66 123 -97
158 -15 17 -37 42 -48 55 -56 66 -197 164 -337 233 -62 31 -121 60 -130 66
-10 5 -22 9 -28 9 -6 0 -29 9 -53 19 -34 16 -250 87 -292 97 -5 1 -35 9 -65
18 -80 22 -84 23 -210 50 -63 14 -133 28 -155 31 -22 4 -51 8 -65 11 -57 10
-207 30 -320 41 -64 7 -688 11 -694 5z"/>
<path d="M9025 19081 c-3 -2 -60 -5 -127 -7 -174 -4 -394 -16 -568 -29 -30 -3
-84 -7 -120 -9 -36 -2 -85 -7 -110 -10 -25 -3 -76 -8 -115 -11 -74 -7 -118
-12 -187 -20 -24 -3 -61 -7 -83 -10 -98 -10 -142 -16 -165 -20 -14 -3 -47 -7
-75 -10 -27 -3 -61 -8 -75 -10 -122 -20 -154 -24 -161 -20 -4 3 -10 1 -14 -4
-3 -5 -14 -8 -25 -6 -22 4 -49 -18 -51 -41 -1 -8 -2 -17 -3 -21 -4 -16 -26
-119 -31 -141 -2 -12 -6 -25 -8 -30 -3 -4 -8 -23 -11 -42 -7 -40 -9 -50 -31
-145 -9 -38 -17 -78 -18 -87 -1 -10 -5 -18 -10 -18 -4 0 -6 -4 -3 -8 3 -5 -8
-64 -25 -132 -16 -68 -32 -137 -35 -154 -2 -17 -8 -40 -11 -51 -4 -11 -8 -27
-9 -35 -1 -8 -16 -78 -34 -155 -17 -77 -33 -151 -36 -165 -3 -14 -14 -61 -24
-105 -24 -101 -49 -213 -56 -245 -3 -14 -16 -74 -30 -135 -14 -60 -26 -118
-27 -127 -1 -10 -4 -18 -7 -18 -3 0 -6 -8 -6 -17 -1 -19 -62 -308 -71 -333 -3
-8 -7 -22 -8 -30 -1 -8 -15 -69 -30 -135 -15 -66 -36 -158 -46 -205 -11 -47
-21 -94 -24 -105 -3 -11 -7 -30 -9 -43 -3 -13 -7 -31 -10 -40 -3 -9 -7 -28
-10 -42 -2 -14 -18 -83 -34 -155 -17 -71 -33 -143 -36 -160 -4 -16 -8 -39 -11
-50 -3 -11 -16 -72 -31 -135 -14 -63 -28 -124 -30 -135 -3 -11 -7 -31 -10 -45
-3 -14 -10 -43 -16 -65 -6 -22 -12 -51 -13 -65 -2 -14 -4 -25 -5 -25 -1 0 -3
-7 -5 -15 -2 -8 -31 -139 -65 -290 -34 -151 -63 -279 -65 -285 -1 -5 -5 -21
-8 -35 -4 -14 -9 -36 -11 -50 -3 -14 -7 -34 -10 -45 -5 -23 -23 -101 -61 -270
-15 -66 -29 -129 -31 -140 -3 -11 -7 -31 -10 -45 -5 -25 -20 -87 -30 -125 -3
-11 -7 -33 -10 -50 -3 -16 -7 -37 -8 -45 -2 -8 -6 -22 -9 -30 -3 -8 -8 -31
-11 -51 -3 -20 -8 -42 -10 -50 -3 -8 -8 -25 -10 -39 -3 -14 -10 -45 -17 -70
-6 -25 -13 -56 -15 -70 -3 -14 -7 -33 -10 -42 -3 -9 -6 -25 -8 -35 -3 -10 -11
-48 -20 -84 -26 -114 -31 -140 -41 -209 -4 -25 -9 -56 -11 -70 -13 -63 -15
-336 -5 -431 12 -104 52 -284 71 -320 6 -10 8 -19 6 -19 -3 0 17 -45 45 -100
28 -55 55 -100 60 -100 5 0 9 -6 9 -12 1 -24 123 -160 201 -223 86 -70 325
-184 414 -198 11 -1 25 -5 30 -8 6 -4 28 -10 50 -14 22 -5 45 -9 50 -11 6 -1
21 -5 35 -8 14 -3 36 -7 50 -10 49 -11 145 -29 170 -32 14 -2 36 -5 50 -8 14
-3 45 -9 70 -12 25 -3 57 -7 73 -10 58 -9 200 -22 327 -29 284 -16 798 -22
990 -11 90 5 261 17 310 22 124 11 159 15 190 20 33 5 60 9 140 20 19 3 42 5
50 6 8 0 33 4 55 8 22 5 56 11 75 14 38 6 124 23 210 41 14 3 34 7 45 9 11 3
74 19 140 36 66 18 126 32 133 33 6 0 12 3 12 7 0 4 6 7 13 7 20 0 210 64 225
75 6 6 12 8 12 5 0 -5 72 22 160 60 83 36 306 148 318 160 8 7 18 11 23 8 5
-4 9 -2 9 2 0 5 25 22 55 38 30 17 55 33 55 37 0 4 9 10 20 13 11 3 26 12 33
18 7 7 35 28 62 47 129 90 297 242 416 376 43 50 144 186 180 245 19 30 40 64
47 75 46 72 127 256 189 434 3 8 7 29 10 45 3 17 9 38 15 48 5 10 7 21 4 24
-2 3 -1 15 4 27 4 13 11 39 14 59 8 51 17 107 22 137 9 53 12 448 4 500 -17
112 -22 137 -41 210 -18 70 -29 105 -49 155 -13 33 -114 240 -120 245 -3 3
-27 37 -53 75 -60 89 -131 171 -228 260 -58 54 -165 135 -177 135 -6 0 -12 4
-14 8 -3 7 -35 27 -151 91 -20 11 -39 21 -42 21 -3 0 -24 9 -47 19 -56 23
-159 59 -189 65 -13 2 -31 7 -39 10 -27 10 -112 24 -167 28 -35 2 -46 17 -15
20 17 1 33 4 42 8 3 1 12 3 20 5 8 2 26 6 40 9 14 3 34 7 46 10 57 12 257 75
309 96 147 61 210 89 265 119 36 19 79 41 95 49 17 9 33 20 36 25 3 5 9 8 13
8 3 -1 31 14 61 34 31 19 58 35 62 35 3 0 13 7 22 15 9 9 43 36 76 61 126 96
217 180 301 279 21 26 46 54 55 63 14 16 97 139 126 187 48 81 135 285 147
345 3 14 10 45 17 70 29 117 33 163 33 350 0 170 -4 215 -25 311 -6 26 -12 55
-14 65 -2 11 -4 19 -5 19 -1 0 -3 7 -5 15 -6 34 -39 120 -71 188 -19 41 -34
76 -34 79 0 3 -13 25 -30 50 -16 24 -30 48 -30 52 0 4 -9 16 -20 26 -11 10
-20 22 -20 27 0 5 -6 15 -12 22 -7 7 -29 33 -48 56 -53 65 -157 167 -230 225
-71 56 -228 162 -275 185 -16 8 -37 20 -47 28 -9 7 -22 15 -30 16 -7 2 -47 19
-88 38 -107 51 -274 117 -340 133 -3 1 -12 5 -20 8 -29 12 -197 55 -310 80
-195 43 -234 50 -270 53 -19 1 -35 3 -35 4 0 1 -18 4 -40 6 -22 3 -55 9 -72
14 -21 5 -33 5 -33 -1 0 -6 -6 -7 -12 -2 -16 10 -26 11 -127 19 -46 3 -93 7
-104 9 -65 13 -861 27 -872 16z m490 -1225 c77 -3 151 -7 165 -10 14 -3 48 -8
75 -12 28 -3 59 -7 70 -9 35 -5 209 -57 230 -68 11 -6 22 -12 25 -12 3 0 28
-12 55 -25 91 -45 184 -120 252 -203 23 -29 72 -123 87 -167 41 -124 43 -296
5 -445 -14 -56 -61 -175 -69 -175 -3 0 -12 -16 -19 -35 -7 -19 -16 -35 -21
-35 -5 0 -11 -9 -15 -20 -9 -28 -162 -181 -216 -216 -24 -16 -47 -32 -50 -37
-10 -13 -261 -137 -278 -137 -9 0 -21 -4 -26 -9 -10 -9 -177 -59 -225 -67 -14
-3 -34 -8 -45 -11 -11 -3 -30 -7 -42 -9 -12 -1 -34 -5 -50 -8 -40 -8 -98 -17
-152 -22 -25 -3 -64 -7 -86 -9 -78 -9 -671 -11 -713 -3 -80 17 -133 98 -132
204 1 44 5 70 24 154 3 14 11 50 18 80 6 30 12 57 13 60 12 49 16 69 20 88 11
50 14 64 19 80 3 9 7 28 10 42 3 14 7 36 11 50 3 14 7 34 10 45 2 11 7 31 10
45 4 14 8 34 10 45 3 11 9 40 16 65 6 25 12 54 14 65 7 33 14 67 30 135 34
144 64 276 68 300 3 14 15 66 27 115 12 50 24 98 26 109 6 30 -16 26 264 51
25 3 126 7 225 11 99 3 181 7 183 9 2 1 11 1 20 -1 9 -2 80 -5 157 -8z m-595
-2920 c19 -3 57 -8 85 -11 44 -4 93 -11 145 -20 8 -1 26 -5 40 -8 14 -4 36 -9
50 -11 59 -11 216 -63 238 -79 6 -5 12 -7 12 -3 0 8 109 -46 164 -82 52 -33
146 -110 169 -140 10 -12 24 -28 31 -35 20 -20 70 -99 94 -147 27 -56 53 -130
45 -130 -3 0 0 -7 7 -15 7 -8 10 -15 8 -15 -3 0 1 -26 8 -57 16 -68 12 -303
-6 -378 -6 -27 -14 -61 -16 -74 -9 -46 -64 -177 -94 -224 -16 -26 -30 -52 -30
-57 0 -6 -4 -10 -9 -10 -5 0 -13 -9 -16 -20 -10 -32 -183 -201 -260 -255 -38
-26 -97 -62 -130 -79 -33 -16 -62 -33 -65 -36 -19 -21 -305 -123 -409 -145
-11 -3 -30 -7 -42 -10 -11 -2 -28 -6 -37 -9 -9 -3 -33 -7 -52 -10 -19 -3 -44
-7 -55 -10 -34 -7 -167 -26 -225 -32 -30 -3 -218 -8 -417 -10 -352 -5 -363 -5
-411 16 -63 27 -98 64 -121 126 -25 67 -20 141 18 304 18 74 34 146 36 160 2
14 11 50 20 80 8 30 17 68 20 83 3 16 15 68 26 115 11 47 21 95 24 106 2 12 4
21 5 21 3 0 11 39 12 55 0 8 5 21 11 28 5 6 7 12 4 12 -3 0 1 28 10 63 8 34
16 70 18 80 2 10 7 27 10 37 3 10 8 29 10 42 8 43 19 89 34 153 5 22 12 51 15
65 3 14 17 74 31 135 14 60 27 119 30 130 3 11 11 47 20 80 8 33 17 74 19 91
3 17 10 43 15 57 5 14 8 27 5 30 -3 2 1 17 8 32 l12 27 426 -5 c234 -3 441 -7
460 -11z"/>
<path d="M21685 19050 c-44 -3 -101 -5 -127 -5 -27 0 -48 -2 -48 -5 0 -3 -26
-5 -58 -6 -62 -1 -224 -12 -275 -19 -18 -2 -63 -7 -102 -10 -38 -4 -72 -8 -75
-10 -3 -1 -41 -6 -84 -10 -43 -4 -88 -8 -100 -11 -39 -7 -101 -16 -141 -20
-22 -2 -101 -15 -175 -28 -189 -34 -192 -35 -197 -40 -6 -5 -30 -101 -36 -141
-3 -16 -10 -49 -16 -73 -7 -24 -14 -55 -16 -70 -2 -15 -18 -88 -35 -162 -17
-74 -32 -145 -34 -158 -3 -12 -7 -30 -10 -40 -3 -9 -7 -28 -10 -42 -2 -14 -10
-47 -16 -75 -7 -27 -14 -59 -16 -70 -2 -11 -11 -51 -20 -90 -8 -38 -18 -81
-20 -95 -3 -14 -10 -43 -15 -64 -6 -22 -12 -51 -14 -65 -2 -14 -4 -26 -5 -26
-2 0 -4 -10 -13 -55 -3 -14 -11 -49 -17 -78 -7 -30 -13 -61 -15 -70 -2 -9 -4
-18 -5 -19 -3 -4 -5 -10 -15 -63 -10 -53 -12 -59 -15 -62 -1 -2 -3 -12 -5 -23
-2 -19 -12 -69 -20 -105 -2 -8 -4 -15 -5 -15 -2 0 -9 -33 -14 -70 -3 -16 -5
-30 -6 -30 -2 0 -7 -24 -15 -70 -4 -22 -9 -43 -11 -46 -4 -8 -34 -142 -39
-176 -2 -11 -6 -31 -10 -43 -4 -12 -9 -32 -10 -43 -2 -12 -16 -74 -30 -137
-15 -63 -28 -125 -30 -137 -2 -11 -6 -32 -11 -45 -4 -12 -8 -32 -10 -43 -4
-25 -12 -61 -18 -83 -3 -9 -7 -28 -10 -42 -2 -14 -10 -47 -16 -75 -6 -27 -14
-61 -16 -75 -3 -14 -18 -84 -35 -156 -16 -73 -31 -140 -33 -150 -2 -11 -7 -30
-10 -44 -3 -14 -8 -36 -10 -50 -2 -14 -11 -52 -19 -85 -9 -33 -18 -71 -21 -85
-2 -14 -14 -68 -25 -120 -12 -52 -24 -111 -27 -130 -3 -19 -8 -39 -11 -43 -3
-5 -7 -23 -10 -40 -7 -41 -11 -62 -13 -62 -2 0 -4 -11 -13 -55 -3 -14 -17 -79
-32 -145 -14 -66 -28 -129 -31 -140 -3 -17 -7 -35 -19 -85 -6 -24 -26 -120
-29 -140 -3 -14 -5 -25 -6 -25 -1 0 -3 -7 -5 -15 -1 -8 -13 -60 -25 -115 -12
-55 -26 -118 -31 -140 -5 -22 -11 -51 -14 -65 -3 -14 -8 -36 -11 -50 -3 -14
-10 -43 -15 -65 -5 -22 -11 -49 -13 -60 -2 -11 -9 -42 -16 -70 -6 -27 -14 -61
-16 -75 -3 -14 -9 -41 -14 -60 -5 -19 -12 -47 -15 -62 -3 -16 -7 -40 -11 -55
-3 -16 -11 -56 -19 -89 -8 -34 -16 -73 -19 -85 -2 -13 -10 -46 -16 -74 -6 -27
-14 -60 -16 -73 -2 -12 -13 -59 -24 -105 -10 -45 -21 -93 -24 -107 -2 -14 -10
-47 -16 -75 -6 -27 -14 -61 -16 -75 -3 -14 -12 -54 -20 -90 -9 -36 -17 -76
-19 -90 -2 -14 -4 -26 -6 -27 -1 -2 -2 -6 -3 -10 -15 -66 -20 -90 -22 -98 -1
-5 -3 -12 -4 -15 -2 -6 -4 -14 -25 -115 -9 -44 -18 -87 -20 -95 -2 -8 -9 -37
-15 -65 -6 -27 -13 -57 -15 -65 -2 -8 -8 -35 -14 -60 -5 -25 -13 -60 -16 -79
-3 -19 -8 -37 -10 -41 -4 -7 -11 -38 -21 -99 -3 -19 -10 -45 -15 -58 -5 -13
-7 -23 -4 -23 2 0 -2 -21 -10 -47 -11 -40 -25 -110 -26 -128 0 -2 -5 -19 -10
-37 -5 -18 -12 -44 -14 -58 -2 -14 -9 -44 -15 -68 -5 -23 -12 -57 -15 -75 l-5
-32 521 2 c486 1 634 5 684 17 11 3 40 10 65 16 90 22 206 80 293 147 62 49
95 82 167 170 35 42 120 196 120 217 0 8 4 16 8 18 10 4 71 188 87 263 2 6 8
37 16 70 7 33 14 65 15 70 4 14 20 90 28 130 3 11 9 40 16 65 6 25 12 54 14
65 2 11 14 63 25 115 12 52 24 106 27 120 3 14 7 33 10 42 3 10 7 28 10 40 2
13 6 32 8 43 14 62 39 173 60 265 13 58 27 119 30 135 3 17 12 59 20 95 9 36
30 130 49 210 l32 145 55 -1 c54 -1 195 -11 275 -20 185 -19 548 -24 730 -10
50 3 119 8 156 11 36 3 81 7 100 9 18 3 75 10 124 16 50 6 101 14 115 16 14 3
39 7 55 9 26 4 101 17 115 20 36 8 70 15 90 19 22 4 160 37 215 52 11 3 31 7
45 10 52 10 349 113 460 159 135 56 371 176 467 238 37 24 75 46 83 50 8 4 35
23 60 42 25 19 55 39 68 45 12 5 22 14 22 20 0 5 5 10 11 10 6 0 16 6 23 13 7
6 28 23 46 37 19 14 42 33 52 43 10 9 18 15 18 14 0 -6 120 105 194 179 116
116 188 198 284 325 15 20 34 47 42 59 8 12 20 28 25 34 17 20 35 50 41 69 4
9 10 17 15 17 5 0 9 7 9 15 0 8 3 15 8 15 4 0 12 10 18 23 6 12 26 49 44 82
60 110 90 169 90 181 0 6 7 17 15 24 8 6 14 15 13 18 -1 4 5 21 12 37 7 17 14
36 16 44 1 7 7 18 13 24 6 6 11 17 11 25 0 8 6 28 14 45 12 26 37 97 41 117 1
3 10 32 20 65 10 33 20 65 21 70 1 6 7 30 14 55 12 43 15 56 25 110 3 14 8 39
11 55 4 17 8 41 9 55 1 14 3 25 4 25 2 0 5 20 7 45 3 25 9 73 13 106 8 69 6
405 -3 474 -4 25 -8 63 -10 85 -2 22 -6 51 -10 65 -3 14 -7 39 -10 55 -2 17
-7 37 -10 45 -3 8 -7 29 -10 45 -3 17 -11 50 -19 75 -8 25 -15 47 -15 50 0 3
-6 19 -12 35 -7 17 -13 35 -14 40 -5 18 -17 49 -34 85 -8 19 -16 37 -17 40 -4
19 -51 110 -57 110 -5 0 -8 6 -8 13 0 13 -89 151 -140 218 -14 18 -72 80 -130
138 -154 156 -293 256 -515 368 -66 34 -122 61 -125 61 -3 0 -18 6 -35 12 -16
7 -39 16 -50 20 -11 4 -31 12 -45 18 -28 11 -147 51 -225 75 -108 33 -385 93
-471 102 -21 2 -39 4 -39 5 0 5 -145 24 -275 35 -41 4 -95 8 -120 11 -219 20
-1117 36 -1315 24z m1140 -1254 c154 -11 219 -21 347 -55 99 -26 278 -105 278
-123 0 -5 6 -8 13 -8 36 0 234 -218 241 -266 1 -7 7 -18 13 -25 9 -12 33 -74
39 -101 1 -5 3 -10 4 -13 1 -3 4 -9 5 -15 1 -5 3 -11 5 -12 3 -5 16 -62 25
-114 27 -157 18 -400 -21 -559 -8 -33 -16 -67 -18 -75 -4 -16 -48 -139 -64
-180 -5 -14 -10 -29 -10 -34 0 -5 -4 -12 -9 -15 -13 -10 -33 -49 -33 -66 0 -8
-4 -15 -8 -15 -5 0 -16 -15 -25 -32 -79 -153 -268 -358 -439 -475 -111 -76
-260 -155 -368 -193 -36 -13 -71 -28 -77 -33 -7 -5 -13 -7 -13 -4 0 4 -18 0
-41 -8 -22 -8 -43 -14 -47 -13 -4 1 -14 -1 -22 -5 -24 -9 -130 -31 -200 -42
-17 -2 -50 -7 -73 -11 -107 -16 -560 -19 -622 -5 -45 11 -42 10 -73 22 -13 5
-26 9 -29 9 -3 0 -27 16 -53 35 -32 24 -56 53 -74 90 -39 78 -38 161 4 335 17
74 34 144 36 155 6 32 30 140 64 290 17 77 33 151 36 165 8 38 53 239 64 285
5 22 12 52 15 68 12 64 16 83 21 97 3 8 8 29 11 45 2 17 8 44 13 60 5 17 14
55 19 85 12 61 16 75 31 140 6 25 13 56 15 70 2 14 6 34 9 45 11 42 25 101 30
125 2 14 10 49 16 78 7 30 13 61 15 70 2 9 4 17 5 17 1 0 3 7 5 15 1 8 10 50
20 93 17 76 17 77 49 78 17 0 40 2 51 4 28 5 162 15 274 20 51 3 95 6 97 7 4
5 364 0 449 -6z"/>
<path d="M2230 18573 c-14 -2 -43 -8 -65 -14 -22 -5 -50 -11 -61 -14 -37 -6
-174 -64 -243 -102 -112 -61 -236 -149 -361 -258 -47 -40 -240 -233 -240 -240
0 -3 -8 -14 -17 -24 -24 -26 -34 -39 -63 -81 -14 -19 -27 -37 -30 -40 -6 -5
-78 -113 -95 -142 -5 -9 -35 -59 -66 -110 -30 -51 -65 -113 -78 -138 -12 -25
-26 -52 -31 -60 -20 -35 -49 -104 -45 -109 2 -4 70 -40 152 -81 81 -41 150
-77 153 -80 3 -3 77 -41 164 -85 88 -44 212 -111 275 -148 124 -74 132 -79
290 -183 57 -38 114 -75 127 -82 13 -7 24 -17 24 -23 0 -5 4 -9 10 -9 5 0 47
-28 92 -62 46 -35 89 -68 98 -75 33 -24 274 -226 295 -246 13 -12 45 -42 71
-66 73 -65 180 -169 266 -259 l77 -80 -35 -74 c-71 -146 -99 -203 -104 -208
-3 -3 -18 -30 -34 -60 -37 -69 -156 -261 -173 -278 -7 -7 -13 -17 -13 -22 0
-5 -6 -15 -13 -22 -7 -7 -34 -43 -60 -80 -26 -36 -54 -73 -62 -82 -8 -8 -15
-19 -15 -24 0 -6 -4 -12 -8 -14 -4 -2 -41 -43 -82 -93 -41 -49 -90 -108 -110
-130 -63 -71 -343 -349 -414 -410 -38 -33 -74 -65 -80 -70 -6 -6 -31 -26 -56
-45 -25 -19 -49 -39 -55 -45 -18 -20 -190 -152 -259 -200 -16 -11 -41 -29 -56
-40 -64 -46 -121 -85 -126 -85 -3 0 -14 -8 -25 -18 -10 -11 -32 -25 -47 -33
-15 -8 -29 -16 -32 -19 -10 -11 -247 -156 -325 -200 -22 -13 -60 -34 -85 -48
-145 -83 -518 -272 -536 -272 -5 0 -16 -6 -22 -12 -7 -7 -16 -13 -20 -13 -4
-1 -21 -8 -38 -18 -17 -9 -34 -13 -38 -10 -14 14 -4 -12 26 -65 42 -77 154
-247 173 -262 8 -7 15 -19 15 -26 0 -8 4 -14 8 -14 4 0 26 -23 47 -52 114
-149 271 -295 415 -385 119 -74 323 -161 419 -179 14 -3 28 -7 31 -9 4 -2 35
-9 71 -14 35 -6 82 -13 104 -17 54 -9 278 -9 340 0 42 6 86 14 215 41 27 6
234 82 285 106 28 12 53 22 58 21 4 -1 7 3 7 8 0 6 5 10 12 10 14 0 267 137
291 158 9 8 17 12 17 8 0 -4 6 -2 13 4 6 6 86 56 177 112 91 56 167 105 170
108 3 3 39 27 80 55 150 99 489 344 530 382 14 13 28 23 32 23 3 0 13 6 20 13
7 6 58 48 113 91 55 44 103 85 107 90 4 6 8 8 8 4 0 -4 15 7 34 25 19 17 47
42 63 54 30 24 56 46 147 126 32 29 68 60 80 70 112 95 401 379 514 505 37 41
78 87 92 102 14 15 39 45 55 65 17 21 35 43 40 49 6 6 26 31 45 56 19 25 43
54 52 64 10 11 18 23 18 27 0 4 6 14 13 21 6 7 25 33 42 58 16 25 33 47 36 50
3 3 14 21 25 40 10 19 22 37 25 40 8 6 90 169 112 220 34 81 84 245 92 305 3
22 8 47 11 54 17 51 24 338 10 441 -18 139 -59 317 -77 335 -5 5 -9 18 -9 30
0 12 -5 26 -11 32 -6 6 -12 17 -13 24 -4 18 -33 88 -50 119 -58 105 -74 132
-93 156 -13 16 -23 34 -23 41 0 7 -4 13 -8 13 -4 0 -15 12 -24 28 -9 15 -27
38 -40 52 -13 14 -30 35 -38 46 -15 22 -113 142 -146 180 -11 12 -35 41 -54
64 -19 23 -46 54 -60 69 -14 15 -63 70 -110 121 -149 165 -412 422 -580 566
-24 22 -52 47 -62 56 -9 10 -75 63 -145 119 -71 55 -137 108 -148 118 -11 9
-45 34 -75 56 -30 21 -57 42 -60 45 -3 3 -25 19 -50 35 -25 17 -54 38 -64 48
-11 9 -25 17 -30 17 -6 0 -23 11 -38 25 -15 14 -29 25 -32 25 -2 0 -44 26 -93
58 -49 31 -98 62 -108 69 -181 111 -164 101 -285 167 -47 26 -93 50 -102 53
-10 3 -18 9 -18 14 0 5 -8 9 -18 9 -10 0 -22 4 -27 9 -6 5 -41 19 -80 31 -66
21 -225 33 -295 23z m960 -1887 c0 -3 -4 -8 -10 -11 -5 -3 -10 -1 -10 4 0 6 5
11 10 11 6 0 10 -2 10 -4z"/>
<path d="M27615 18569 c-16 -5 -36 -7 -42 -4 -7 2 -13 -1 -13 -7 0 -6 -2 -9
-5 -6 -7 7 -109 -24 -172 -53 -92 -41 -138 -64 -141 -71 -2 -5 -8 -8 -13 -8
-14 0 -153 -94 -234 -159 -151 -120 -293 -265 -372 -378 -20 -29 -40 -53 -45
-53 -4 0 -8 -7 -8 -15 0 -8 -4 -15 -10 -15 -5 0 -10 -7 -10 -15 0 -9 -7 -18
-15 -21 -8 -4 -15 -11 -15 -17 0 -5 -10 -24 -23 -41 -72 -95 -264 -447 -253
-464 2 -4 69 -40 148 -81 78 -40 171 -88 206 -106 34 -17 62 -30 62 -27 0 2 6
0 13 -6 6 -5 52 -31 101 -57 49 -26 103 -55 120 -66 17 -10 45 -25 61 -34 17
-8 46 -25 66 -37 19 -13 57 -36 85 -52 131 -79 515 -348 572 -404 8 -7 30 -25
50 -40 20 -15 44 -34 53 -42 8 -8 47 -42 85 -75 120 -105 196 -176 314 -295
170 -172 156 -147 124 -216 -15 -33 -27 -61 -26 -64 0 -3 -3 -9 -8 -15 -4 -5
-32 -57 -62 -115 -68 -130 -130 -233 -226 -375 -79 -116 -201 -278 -214 -283
-4 -2 -8 -10 -8 -17 0 -7 -4 -15 -9 -17 -4 -1 -35 -34 -67 -73 -32 -38 -75
-86 -94 -106 -232 -242 -311 -317 -550 -519 -29 -25 -63 -51 -74 -59 -12 -8
-23 -17 -26 -21 -3 -3 -45 -36 -95 -73 -49 -37 -94 -70 -100 -75 -5 -4 -39
-27 -75 -51 -36 -24 -66 -48 -68 -53 -2 -4 -7 -8 -12 -8 -8 0 -102 -59 -127
-80 -6 -5 -27 -18 -45 -29 -18 -10 -81 -48 -139 -84 -58 -35 -123 -74 -145
-86 -21 -12 -59 -33 -84 -47 -154 -88 -551 -288 -570 -286 -3 0 -17 -9 -31
-19 -14 -10 -29 -16 -33 -12 -17 17 -2 -26 26 -76 40 -70 146 -231 167 -252 9
-9 23 -27 31 -39 22 -34 91 -114 101 -118 5 -2 9 -8 9 -13 0 -13 153 -165 210
-209 25 -19 47 -37 50 -41 3 -3 15 -9 28 -13 12 -4 22 -12 22 -17 0 -5 10 -14
23 -19 23 -10 58 -31 67 -40 3 -3 48 -25 100 -48 52 -24 103 -48 112 -53 10
-5 26 -9 36 -9 10 0 23 -5 30 -12 7 -7 12 -9 12 -5 0 4 8 3 18 -2 11 -6 30
-12 43 -14 13 -3 42 -9 64 -15 84 -22 176 -32 310 -33 118 -1 218 6 275 21 19
5 51 12 70 15 95 16 294 92 455 172 60 31 118 63 128 71 9 8 17 12 17 7 0 -4
7 -2 15 5 16 13 82 52 125 73 14 6 34 20 45 30 11 10 29 20 42 23 12 3 24 12
27 20 3 8 11 14 17 14 7 0 49 25 94 55 46 30 88 55 93 55 6 0 12 4 14 8 2 4
37 30 78 57 41 28 77 52 80 55 3 3 32 23 65 45 33 22 78 55 101 72 23 18 46
33 52 33 6 0 12 4 14 8 2 4 48 41 103 82 55 40 134 100 175 132 41 33 91 71
110 86 28 22 104 84 233 192 278 230 619 563 827 806 105 122 277 353 273 366
-2 4 2 8 7 8 6 0 15 10 20 23 6 12 19 36 30 52 58 88 175 356 186 425 1 8 9
42 17 75 28 109 39 212 38 360 0 55 0 100 -1 100 -1 0 -3 23 -6 50 -2 28 -6
61 -8 75 -3 14 -9 50 -15 80 -24 131 -82 296 -149 425 -41 79 -111 188 -124
193 -4 2 -8 8 -8 13 0 9 -221 288 -260 329 -8 9 -32 36 -53 60 -147 170 -482
513 -613 627 -32 28 -75 66 -95 85 -20 18 -56 49 -80 70 -24 20 -54 44 -66 55
-37 32 -56 47 -123 98 -35 28 -76 60 -90 73 -14 12 -28 22 -33 22 -4 0 -18 9
-30 20 -49 45 -418 300 -435 300 -4 0 -17 8 -28 18 -10 10 -26 21 -34 25 -8 4
-32 17 -52 29 -100 62 -217 128 -226 128 -6 0 -12 3 -14 8 -8 18 -165 94 -243
117 -66 20 -249 28 -300 14z"/>
</g>
</svg>
